R语言学习笔记 - 3 tidymodels-进阶
…
重复k折交叉验证repeated k-CV

重复k折交叉验证是k折交叉验证的扩展，它重复k折交叉验证多次。重复k折交叉验证的优点是它提供了更准确的模型性能估计，但是计算成本更高。

在vfold_cv()函数中，可以使用repeats参数指定重复次数。

代码

ames_train |>
  vfold_cv(v = 10, repeats = 5)

#  10-fold cross-validation repeated 5 times 
# A tibble: 50 × 3
   splits             id      id2   
   <list>             <chr>   <chr> 
 1 <split [2107/235]> Repeat1 Fold01
 2 <split [2107/235]> Repeat1 Fold02
 3 <split [2108/234]> Repeat1 Fold03
 4 <split [2108/234]> Repeat1 Fold04
 5 <split [2108/234]> Repeat1 Fold05
 6 <split [2108/234]> Repeat1 Fold06
 7 <split [2108/234]> Repeat1 Fold07
 8 <split [2108/234]> Repeat1 Fold08
 9 <split [2108/234]> Repeat1 Fold09
10 <split [2108/234]> Repeat1 Fold10
# ℹ 40 more rows
…
方法的模型性能评估结果可以使用collect_predictions()函数提取。

代码

rf_res |>
  collect_predictions() -> assess_res

assess_res

# A tibble: 2,342 × 5
   id     .pred  .row Sale_Price .config             
   <chr>  <dbl> <int>      <dbl> <chr>               
 1 Fold01  5.07     1       5.10 Preprocessor1_Model1
 2 Fold01  5.17    16       5.04 Preprocessor1_Model1
 3 Fold01  4.91    27       4.90 Preprocessor1_Model1
 4 Fold01  5.04    37       5.09 Preprocessor1_Model1
 5 Fold01  5.02    40       5.04 Preprocessor1_Model1
 6 Fold01  5.15    44       4.97 Preprocessor1_Model1
 7 Fold01  5.12    57       5.10 Preprocessor1_Model1
 8 Fold01  4.98    60       4.90 Preprocessor1_Model1
 9 Fold01  4.92    69       5.01 Preprocessor1_Model1
10 Fold01  5.08    78       4.88 Preprocessor1_Model1
# ℹ 2,332 more rows
…
