R语言学习笔记 - 2 tidymodels-基础
…
lm_workflow |>
  fit(data = ames_train) -> lm_fit

可以使用tidy()函数并指定id参数，查看对应id步骤的结果，也可以指定number参数，查看对应的结果：

代码

lm_fit |>
  extract_recipe(estimated = TRUE) |>
  tidy(id = "my_id")

# A tibble: 21 × 3
   terms        retained           id   
   <chr>        <chr>              <chr>
 1 Neighborhood North_Ames         my_id
 2 Neighborhood College_Creek      my_id
 3 Neighborhood Old_Town           my_id
 4 Neighborhood Edwards            my_id
 5 Neighborhood Somerset           my_id
 6 Neighborhood Northridge_Heights my_id
 7 Neighborhood Gilbert            my_id
 8 Neighborhood Sawyer             my_id
 9 Neighborhood Northwest_Ames     my_id
10 Neighborhood Sawyer_West        my_id
# ℹ 11 more rows

代码

lm_fit |>
  extract_recipe(estimated = TRUE) |>
  tidy(number = 3)

# A tibble: 25 × 3
   terms        columns            id         
   <chr>        <chr>              <chr>      
 1 Neighborhood College_Creek      dummy_EvyKp
 2 Neighborhood Old_Town           dummy_EvyKp
 3 Neighborhood Edwards            dummy_EvyKp
 4 Neighborhood Somerset           dummy_EvyKp
 5 Neighborhood Northridge_Heights dummy_EvyKp
 6 Neighborhood Gilbert            dummy_EvyKp
 7 Neighborhood Sawyer             dummy_EvyKp
 8 Neighborhood Northwest_Ames     dummy_EvyKp
 9 Neighborhood Sawyer_West        dummy_EvyKp
10 Neighborhood Mitchell           dummy_EvyKp
# ℹ 15 more rows
…
# A tibble: 1 × 3
  .metric .estimator .estimate
  <chr>   <chr>          <dbl>
1 f_meas  binary         0.849

roc_curve和roc_auc：ROC曲线和AUC

代码

two_class_example |>
  roc_curve(truth = truth, Class1) -> two_class_curve

two_class_curve

# A tibble: 502 × 3
   .threshold specificity sensitivity
        <dbl>       <dbl>       <dbl>
 1 -Inf           0                 1
 2    1.79e-7     0                 1
 3    4.50e-6     0.00413           1
 4    5.81e-6     0.00826           1
 5    5.92e-6     0.0124            1
 6    1.22e-5     0.0165            1
 7    1.40e-5     0.0207            1
 8    1.43e-5     0.0248            1
 9    2.38e-5     0.0289            1
10    3.30e-5     0.0331            1
# ℹ 492 more rows
…
